EESchema Schematic File Version 2
LIBS:power
LIBS:device
LIBS:transistors
LIBS:conn
LIBS:linear
LIBS:regul
LIBS:74xx
LIBS:cmos4000
LIBS:adc-dac
LIBS:memory
LIBS:xilinx
LIBS:microcontrollers
LIBS:dsp
LIBS:microchip
LIBS:analog_switches
LIBS:motorola
LIBS:texas
LIBS:intel
LIBS:audio
LIBS:interface
LIBS:digital-audio
LIBS:philips
LIBS:display
LIBS:cypress
LIBS:siliconi
LIBS:opto
LIBS:atmel
LIBS:contrib
LIBS:valves
LIBS:diy
LIBS:soldering-station-cache
EELAYER 25 0
EELAYER END
$Descr A4 11693 8268
encoding utf-8
Sheet 2 3
Title ""
Date "2018-07-07"
Rev "1"
Comp "Detlus"
Comment1 ""
Comment2 ""
Comment3 ""
Comment4 ""
$EndDescr
Text Label 3285 3905 2    60   ~ 0
IRON1_REED_SWITCH
Text Label 3285 3750 2    60   ~ 0
IRON1_START_BUTTON
Text Label 3285 3595 2    60   ~ 0
IRON1_STOP_BUTTON
Text Label 1905 890  2    60   ~ 0
IRON1_STOP_BUTTON
Text Label 1905 990  2    60   ~ 0
IRON1_START_BUTTON
Text Label 1905 1090 2    60   ~ 0
IRON1_REED_SWITCH
Text Label 1905 1190 2    60   ~ 0
IRON1_TC_READING
Text Label 1905 1290 2    60   ~ 0
IRON1_HEATER_CONTROL
$Comp
L CONN_01X05 RE1
U 1 1 5B414547
P 4245 1535
F 0 "RE1" H 4245 1835 50  0000 C CNN
F 1 "ROTARY_ENCODER" V 4345 1535 50  0000 C CNN
F 2 "diy:JST_XH_5P-2.54" H 4245 1535 50  0001 C CNN
F 3 "" H 4245 1535 50  0000 C CNN
	1    4245 1535
	1    0    0    -1  
$EndComp
Text Label 4045 1335 2    60   ~ 0
MAIN_GND
Text Label 4045 1735 2    60   ~ 0
MAIN_GND
Text Label 4045 1635 2    60   ~ 0
RE_BUTTON
Text Label 4045 1535 2    60   ~ 0
RE_PIN_A
Text Label 4045 1435 2    60   ~ 0
RE_PIN_B
$Comp
L CONN_01X05 IB1
U 1 1 5B414553
P 2105 1090
F 0 "IB1" H 2105 1390 50  0000 C CNN
F 1 "IRON1_BOARD" V 2205 1090 50  0000 C CNN
F 2 "diy:JST_XH_5P-2.54" H 2105 1090 50  0001 C CNN
F 3 "" H 2105 1090 50  0000 C CNN
	1    2105 1090
	1    0    0    -1  
$EndComp
$Comp
L CONN_01X02 BP1
U 1 1 5B41455A
P 3015 990
F 0 "BP1" H 2995 1155 50  0000 C CNN
F 1 "IRON1_BOARD_POWER" V 3115 990 50  0000 C CNN
F 2 "diy:JST_XH_2P-2.54" H 3015 990 50  0001 C CNN
F 3 "" H 3015 990 50  0000 C CNN
	1    3015 990 
	1    0    0    -1  
$EndComp
Text Label 2815 940  2    60   ~ 0
MAIN_GND
Text Label 2815 1040 2    60   ~ 0
VCC
$Comp
L SN74HC14N U?
U 1 1 5B414566
P 3895 5225
AR Path="/5B414566" Ref="U?"  Part="1" 
AR Path="/5B412568/5B414566" Ref="IBI1"  Part="1" 
F 0 "IBI1" H 3845 5075 50  0000 L BNN
F 1 "SN74HC14N" H 3390 4320 50  0000 L BNN
F 2 "Housings_DIP:DIP-14_W7.62mm_LongPads" H 3895 5225 50  0001 L BNN
F 3 "0.76 USD" H 3895 5225 50  0001 L BNN
F 4 "Inverter Schmitt Trigger 6-Element CMOS 14-Pin PDIP Tube" H 3895 5225 50  0001 L BNN "Description"
F 5 "Texas Instruments" H 3895 5225 50  0001 L BNN "MF"
F 6 "DIP-14 Texas Instruments" H 3895 5225 50  0001 L BNN "Package"
	1    3895 5225
	1    0    0    -1  
$EndComp
$Comp
L C_Small C1
U 1 1 5B41456D
P 2245 5125
F 0 "C1" V 2360 5080 50  0000 L CNN
F 1 "104" V 2285 5160 50  0000 L CNN
F 2 "Capacitors_SMD:C_0805_HandSoldering" H 2245 5125 50  0001 C CNN
F 3 "" H 2245 5125 50  0000 C CNN
	1    2245 5125
	0    -1   -1   0   
$EndComp
$Comp
L C_Small C2
U 1 1 5B414574
P 2340 5225
F 0 "C2" V 2380 5105 50  0000 L CNN
F 1 "104" V 2375 5355 50  0000 L CNN
F 2 "Capacitors_SMD:C_0805_HandSoldering" H 2340 5225 50  0001 C CNN
F 3 "" H 2340 5225 50  0000 C CNN
	1    2340 5225
	0    -1   -1   0   
$EndComp
$Comp
L C_Small C3
U 1 1 5B41457B
P 2245 5325
F 0 "C3" V 2285 5200 50  0000 L CNN
F 1 "104" V 2285 5360 50  0000 L CNN
F 2 "Capacitors_SMD:C_0805_HandSoldering" H 2245 5325 50  0001 C CNN
F 3 "" H 2245 5325 50  0000 C CNN
	1    2245 5325
	0    -1   -1   0   
$EndComp
$Comp
L C_Small C4
U 1 1 5B414582
P 2340 5425
F 0 "C4" V 2380 5295 50  0000 L CNN
F 1 "104" V 2375 5555 50  0000 L CNN
F 2 "Capacitors_SMD:C_0805_HandSoldering" H 2340 5425 50  0001 C CNN
F 3 "" H 2340 5425 50  0000 C CNN
	1    2340 5425
	0    -1   -1   0   
$EndComp
$Comp
L C_Small C5
U 1 1 5B414589
P 2245 5525
F 0 "C5" V 2280 5400 50  0000 L CNN
F 1 "104" V 2285 5560 50  0000 L CNN
F 2 "Capacitors_SMD:C_0805_HandSoldering" H 2245 5525 50  0001 C CNN
F 3 "" H 2245 5525 50  0000 C CNN
	1    2245 5525
	0    -1   -1   0   
$EndComp
$Comp
L C_Small C6
U 1 1 5B414590
P 2345 5625
F 0 "C6" V 2380 5500 50  0000 L CNN
F 1 "104" V 2385 5760 50  0000 L CNN
F 2 "Capacitors_SMD:C_0805_HandSoldering" H 2345 5625 50  0001 C CNN
F 3 "" H 2345 5625 50  0000 C CNN
	1    2345 5625
	0    -1   -1   0   
$EndComp
Text Label 1890 5125 2    60   ~ 0
MAIN_GND
Text Label 3640 4675 0    60   ~ 0
VCC
$Comp
L R R2
U 1 1 5B414599
P 3450 3750
F 0 "R2" V 3530 3750 50  0000 C CNN
F 1 "10K" V 3450 3750 50  0000 C CNN
F 2 "Resistors_SMD:R_0805_HandSoldering" V 3380 3750 50  0001 C CNN
F 3 "" H 3450 3750 50  0000 C CNN
	1    3450 3750
	0    1    1    0   
$EndComp
$Comp
L R R3
U 1 1 5B4145A0
P 3450 3905
F 0 "R3" V 3530 3905 50  0000 C CNN
F 1 "10K" V 3450 3905 50  0000 C CNN
F 2 "Resistors_SMD:R_0805_HandSoldering" V 3380 3905 50  0001 C CNN
F 3 "" H 3450 3905 50  0000 C CNN
	1    3450 3905
	0    1    1    0   
$EndComp
$Comp
L R R4
U 1 1 5B4145A7
P 3450 4060
F 0 "R4" V 3530 4060 50  0000 C CNN
F 1 "10K" V 3450 4060 50  0000 C CNN
F 2 "Resistors_SMD:R_0805_HandSoldering" V 3380 4060 50  0001 C CNN
F 3 "" H 3450 4060 50  0000 C CNN
	1    3450 4060
	0    1    1    0   
$EndComp
$Comp
L R R5
U 1 1 5B4145AE
P 3450 4215
F 0 "R5" V 3530 4215 50  0000 C CNN
F 1 "10K" V 3450 4215 50  0000 C CNN
F 2 "Resistors_SMD:R_0805_HandSoldering" V 3380 4215 50  0001 C CNN
F 3 "" H 3450 4215 50  0000 C CNN
	1    3450 4215
	0    1    1    0   
$EndComp
$Comp
L R R6
U 1 1 5B4145B5
P 3450 4375
F 0 "R6" V 3530 4375 50  0000 C CNN
F 1 "10K" V 3450 4375 50  0000 C CNN
F 2 "Resistors_SMD:R_0805_HandSoldering" V 3380 4375 50  0001 C CNN
F 3 "" H 3450 4375 50  0000 C CNN
	1    3450 4375
	0    1    1    0   
$EndComp
$Comp
L R R1
U 1 1 5B4145BC
P 3450 3595
F 0 "R1" V 3530 3595 50  0000 C CNN
F 1 "10K" V 3450 3595 50  0000 C CNN
F 2 "Resistors_SMD:R_0805_HandSoldering" V 3380 3595 50  0001 C CNN
F 3 "" H 3450 3595 50  0000 C CNN
	1    3450 3595
	0    1    1    0   
$EndComp
$Comp
L R R12
U 1 1 5B4145E8
P 3120 4805
F 0 "R12" V 3200 4805 50  0000 C CNN
F 1 "10K" V 3120 4805 50  0000 C CNN
F 2 "Resistors_SMD:R_0805_HandSoldering" V 3050 4805 50  0001 C CNN
F 3 "" H 3120 4805 50  0000 C CNN
	1    3120 4805
	-1   0    0    1   
$EndComp
$Comp
L R R11
U 1 1 5B4145EF
P 2955 4805
F 0 "R11" V 3035 4805 50  0000 C CNN
F 1 "10K" V 2955 4805 50  0000 C CNN
F 2 "Resistors_SMD:R_0805_HandSoldering" V 2885 4805 50  0001 C CNN
F 3 "" H 2955 4805 50  0000 C CNN
	1    2955 4805
	-1   0    0    1   
$EndComp
$Comp
L R R10
U 1 1 5B4145F6
P 2795 4805
F 0 "R10" V 2875 4805 50  0000 C CNN
F 1 "10K" V 2795 4805 50  0000 C CNN
F 2 "Resistors_SMD:R_0805_HandSoldering" V 2725 4805 50  0001 C CNN
F 3 "" H 2795 4805 50  0000 C CNN
	1    2795 4805
	-1   0    0    1   
$EndComp
$Comp
L R R9
U 1 1 5B4145FD
P 2640 4805
F 0 "R9" V 2720 4805 50  0000 C CNN
F 1 "10K" V 2640 4805 50  0000 C CNN
F 2 "Resistors_SMD:R_0805_HandSoldering" V 2570 4805 50  0001 C CNN
F 3 "" H 2640 4805 50  0000 C CNN
	1    2640 4805
	-1   0    0    1   
$EndComp
$Comp
L R R8
U 1 1 5B414604
P 2480 4805
F 0 "R8" V 2560 4805 50  0000 C CNN
F 1 "10K" V 2480 4805 50  0000 C CNN
F 2 "Resistors_SMD:R_0805_HandSoldering" V 2410 4805 50  0001 C CNN
F 3 "" H 2480 4805 50  0000 C CNN
	1    2480 4805
	-1   0    0    1   
$EndComp
$Comp
L R R7
U 1 1 5B41460B
P 2320 4805
F 0 "R7" V 2400 4805 50  0000 C CNN
F 1 "10K" V 2320 4805 50  0000 C CNN
F 2 "Resistors_SMD:R_0805_HandSoldering" V 2250 4805 50  0001 C CNN
F 3 "" H 2320 4805 50  0000 C CNN
	1    2320 4805
	-1   0    0    1   
$EndComp
$Comp
L Arduino_Pro_Mini_16Mhz M1
U 1 1 5B414BD7
P 6125 2935
F 0 "M1" H 6250 2960 60  0000 C CNN
F 1 "Arduino_Pro_Mini_16Mhz" V 5950 3110 60  0000 C CNN
F 2 "diy:Arduino_Pro_Mini_16Mhz" H 6125 2935 60  0001 C CNN
F 3 "" H 6125 2935 60  0000 C CNN
	1    6125 2935
	1    0    0    -1  
$EndComp
Text Label 4720 2985 2    60   ~ 0
IRON1_HEATER_CONTROL
Text Label 6395 4565 3    60   ~ 0
IRON1_TC_READING
Text Label 7180 2485 0    60   ~ 0
iron1_5vdc
$Comp
L CONN_01X04 D1
U 1 1 5B414BE5
P 6025 4395
F 0 "D1" H 6025 4645 50  0000 C CNN
F 1 "TO_DISPLAY" V 6125 4395 50  0000 C CNN
F 2 "diy:JST_XH_4P-2.54" H 6025 4395 50  0001 C CNN
F 3 "" H 6025 4395 50  0000 C CNN
	1    6025 4395
	0    1    1    0   
$EndComp
Text Label 4925 2485 2    60   ~ 0
MAIN_GND
Text Label 6880 2485 0    60   ~ 0
VCC
Text Label 6075 4195 1    60   ~ 0
VCC
Text Label 6175 4195 1    60   ~ 0
MAIN_GND
Text Label 6620 4565 3    60   ~ 0
IRON2_TC_READING
Text Label 4720 3485 2    60   ~ 0
IRON2_HEATER_CONTROL
Text Label 1905 1675 2    60   ~ 0
IRON2_STOP_BUTTON
Text Label 1905 1775 2    60   ~ 0
IRON2_START_BUTTON
Text Label 1905 1875 2    60   ~ 0
IRON2_REED_SWITCH
Text Label 1905 1975 2    60   ~ 0
IRON2_TC_READING
Text Label 1905 2075 2    60   ~ 0
IRON2_HEATER_CONTROL
$Comp
L CONN_01X05 IB2
U 1 1 5B41FF70
P 2105 1875
F 0 "IB2" H 2105 2175 50  0000 C CNN
F 1 "IRON2_BOARD" V 2205 1875 50  0000 C CNN
F 2 "diy:JST_XH_5P-2.54" H 2105 1875 50  0001 C CNN
F 3 "" H 2105 1875 50  0000 C CNN
	1    2105 1875
	1    0    0    -1  
$EndComp
$Comp
L CONN_01X02 BP2
U 1 1 5B4211F2
P 3015 1950
F 0 "BP2" H 2995 2100 50  0000 C CNN
F 1 "IRON2_BOARD_POWER" V 3115 1950 50  0000 C CNN
F 2 "diy:JST_XH_2P-2.54" H 3015 1950 50  0001 C CNN
F 3 "" H 3015 1950 50  0000 C CNN
	1    3015 1950
	1    0    0    -1  
$EndComp
Text Label 2815 1900 2    60   ~ 0
MAIN_GND
Text Label 2815 2000 2    60   ~ 0
VCC
$Comp
L SN74HC14N U?
U 1 1 5B42390A
P 8450 2560
AR Path="/5B42390A" Ref="U?"  Part="1" 
AR Path="/5B412568/5B42390A" Ref="REI1"  Part="1" 
F 0 "REI1" H 8380 2375 50  0000 L BNN
F 1 "SN74HC14N" H 7945 1655 50  0000 L BNN
F 2 "Housings_DIP:DIP-14_W7.62mm_LongPads" H 8450 2560 50  0001 L BNN
F 3 "0.76 USD" H 8450 2560 50  0001 L BNN
F 4 "Inverter Schmitt Trigger 6-Element CMOS 14-Pin PDIP Tube" H 8450 2560 50  0001 L BNN "Description"
F 5 "Texas Instruments" H 8450 2560 50  0001 L BNN "MF"
F 6 "DIP-14 Texas Instruments" H 8450 2560 50  0001 L BNN "Package"
	1    8450 2560
	-1   0    0    1   
$EndComp
$Comp
L C_Small C7
U 1 1 5B42543F
P 9820 2660
F 0 "C7" V 9850 2535 50  0000 L CNN
F 1 "104" V 9860 2690 50  0000 L CNN
F 2 "Capacitors_SMD:C_0805_HandSoldering" H 9820 2660 50  0001 C CNN
F 3 "" H 9820 2660 50  0000 C CNN
	1    9820 2660
	0    -1   -1   0   
$EndComp
$Comp
L C_Small C8
U 1 1 5B426364
P 9915 2560
F 0 "C8" V 9955 2435 50  0000 L CNN
F 1 "104" V 9950 2595 50  0000 L CNN
F 2 "Capacitors_SMD:C_0805_HandSoldering" H 9915 2560 50  0001 C CNN
F 3 "" H 9915 2560 50  0000 C CNN
	1    9915 2560
	0    -1   -1   0   
$EndComp
$Comp
L C_Small C9
U 1 1 5B4265ED
P 9820 2460
F 0 "C9" V 9860 2325 50  0000 L CNN
F 1 "104" V 9865 2500 50  0000 L CNN
F 2 "Capacitors_SMD:C_0805_HandSoldering" H 9820 2460 50  0001 C CNN
F 3 "" H 9820 2460 50  0000 C CNN
	1    9820 2460
	0    -1   -1   0   
$EndComp
Text Label 9225 1960 0    60   ~ 0
MAIN_GND
Text Label 2230 4060 2    60   ~ 0
IRON2_STOP_BUTTON
Text Label 2230 4215 2    60   ~ 0
IRON2_START_BUTTON
Text Label 2230 4375 2    60   ~ 0
IRON2_REED_SWITCH
$Comp
L R R16
U 1 1 5B429150
P 9275 3165
F 0 "R16" V 9355 3165 50  0000 C CNN
F 1 "10K" V 9275 3165 50  0000 C CNN
F 2 "Resistors_SMD:R_0805_HandSoldering" V 9205 3165 50  0001 C CNN
F 3 "" H 9275 3165 50  0000 C CNN
	1    9275 3165
	1    0    0    -1  
$EndComp
$Comp
L R R17
U 1 1 5B429538
P 9440 3165
F 0 "R17" V 9520 3165 50  0000 C CNN
F 1 "10K" V 9440 3165 50  0000 C CNN
F 2 "Resistors_SMD:R_0805_HandSoldering" V 9370 3165 50  0001 C CNN
F 3 "" H 9440 3165 50  0000 C CNN
	1    9440 3165
	1    0    0    -1  
$EndComp
$Comp
L R R18
U 1 1 5B4295CE
P 9605 3165
F 0 "R18" V 9685 3165 50  0000 C CNN
F 1 "10K" V 9605 3165 50  0000 C CNN
F 2 "Resistors_SMD:R_0805_HandSoldering" V 9535 3165 50  0001 C CNN
F 3 "" H 9605 3165 50  0000 C CNN
	1    9605 3165
	1    0    0    -1  
$EndComp
$Comp
L R R15
U 1 1 5B42A13A
P 9010 3440
F 0 "R15" V 9090 3440 50  0000 C CNN
F 1 "10K" V 9010 3440 50  0000 C CNN
F 2 "Resistors_SMD:R_0805_HandSoldering" V 8940 3440 50  0001 C CNN
F 3 "" H 9010 3440 50  0000 C CNN
	1    9010 3440
	0    -1   -1   0   
$EndComp
$Comp
L R R14
U 1 1 5B42A32A
P 9010 3615
F 0 "R14" V 9090 3615 50  0000 C CNN
F 1 "10K" V 9010 3615 50  0000 C CNN
F 2 "Resistors_SMD:R_0805_HandSoldering" V 8940 3615 50  0001 C CNN
F 3 "" H 9010 3615 50  0000 C CNN
	1    9010 3615
	0    -1   -1   0   
$EndComp
$Comp
L R R13
U 1 1 5B42A3EF
P 9010 3795
F 0 "R13" V 9090 3795 50  0000 C CNN
F 1 "10K" V 9010 3795 50  0000 C CNN
F 2 "Resistors_SMD:R_0805_HandSoldering" V 8940 3795 50  0001 C CNN
F 3 "" H 9010 3795 50  0000 C CNN
	1    9010 3795
	0    -1   -1   0   
$EndComp
Text Label 9605 3440 0    60   ~ 0
RE_PIN_B
Text Label 9440 3615 0    60   ~ 0
RE_PIN_A
Text Label 9275 3795 0    60   ~ 0
RE_BUTTON
Text Label 8795 3160 2    60   ~ 0
VCC
NoConn ~ 5750 1810
NoConn ~ 5875 1810
NoConn ~ 6000 1810
NoConn ~ 5325 2110
NoConn ~ 5325 2235
NoConn ~ 5325 2360
NoConn ~ 6825 3110
NoConn ~ 6825 3235
NoConn ~ 6825 3360
NoConn ~ 7750 2360
NoConn ~ 7750 2460
NoConn ~ 7750 2560
$Comp
L R R19
U 1 1 5B65407C
P 4745 4035
F 0 "R19" V 4825 4035 50  0000 C CNN
F 1 "330R" V 4745 4035 50  0000 C CNN
F 2 "Resistors_SMD:R_0805_HandSoldering" V 4675 4035 50  0001 C CNN
F 3 "" H 4745 4035 50  0000 C CNN
	1    4745 4035
	-1   0    0    1   
$EndComp
$Comp
L R R20
U 1 1 5B654300
P 4860 4035
F 0 "R20" V 4895 4215 50  0000 C CNN
F 1 "330R" V 4860 4035 50  0000 C CNN
F 2 "Resistors_SMD:R_0805_HandSoldering" V 4790 4035 50  0001 C CNN
F 3 "" H 4860 4035 50  0000 C CNN
	1    4860 4035
	-1   0    0    1   
$EndComp
$Comp
L R R21
U 1 1 5B6543C2
P 4975 4035
F 0 "R21" V 5005 4210 50  0000 C CNN
F 1 "330R" V 4975 4035 50  0000 C CNN
F 2 "Resistors_SMD:R_0805_HandSoldering" V 4905 4035 50  0001 C CNN
F 3 "" H 4975 4035 50  0000 C CNN
	1    4975 4035
	-1   0    0    1   
$EndComp
$Comp
L R R22
U 1 1 5B6544BD
P 5095 4035
F 0 "R22" V 5130 4215 50  0000 C CNN
F 1 "330R" V 5095 4035 50  0000 C CNN
F 2 "Resistors_SMD:R_0805_HandSoldering" V 5025 4035 50  0001 C CNN
F 3 "" H 5095 4035 50  0000 C CNN
	1    5095 4035
	-1   0    0    1   
$EndComp
$Comp
L R R23
U 1 1 5B6545BB
P 5215 4030
F 0 "R23" V 5250 4215 50  0000 C CNN
F 1 "330R" V 5215 4030 50  0000 C CNN
F 2 "Resistors_SMD:R_0805_HandSoldering" V 5145 4030 50  0001 C CNN
F 3 "" H 5215 4030 50  0000 C CNN
	1    5215 4030
	-1   0    0    1   
$EndComp
$Comp
L R R24
U 1 1 5B65467E
P 5340 4030
F 0 "R24" V 5370 4220 50  0000 C CNN
F 1 "330R" V 5340 4030 50  0000 C CNN
F 2 "Resistors_SMD:R_0805_HandSoldering" V 5270 4030 50  0001 C CNN
F 3 "" H 5340 4030 50  0000 C CNN
	1    5340 4030
	-1   0    0    1   
$EndComp
$Comp
L R R25
U 1 1 5B6589FF
P 7245 2860
F 0 "R25" V 7275 2685 50  0000 C CNN
F 1 "330R" V 7245 2860 50  0000 C CNN
F 2 "Resistors_SMD:R_0805_HandSoldering" V 7175 2860 50  0001 C CNN
F 3 "" H 7245 2860 50  0000 C CNN
	1    7245 2860
	0    -1   -1   0   
$EndComp
$Comp
L R R27
U 1 1 5B658E7B
P 7240 2610
F 0 "R27" V 7280 2430 50  0000 C CNN
F 1 "330R" V 7240 2610 50  0000 C CNN
F 2 "Resistors_SMD:R_0805_HandSoldering" V 7170 2610 50  0001 C CNN
F 3 "" H 7240 2610 50  0000 C CNN
	1    7240 2610
	0    -1   -1   0   
$EndComp
$Comp
L R R26
U 1 1 5B658D9F
P 7240 2735
F 0 "R26" V 7270 2560 50  0000 C CNN
F 1 "330R" V 7240 2735 50  0000 C CNN
F 2 "Resistors_SMD:R_0805_HandSoldering" V 7170 2735 50  0001 C CNN
F 3 "" H 7240 2735 50  0000 C CNN
	1    7240 2735
	0    -1   -1   0   
$EndComp
Text Label 5700 3710 3    60   ~ 0
MAIN_GND
Text Label 7015 2235 0    60   ~ 0
MAIN_GND
$Comp
L Conn_01x02 MP1
U 1 1 5B7BB42E
P 6915 1545
F 0 "MP1" H 6915 1645 50  0000 C CNN
F 1 "V_IN" H 6915 1345 50  0000 C CNN
F 2 "diy:JST_XH_2P-2.54" H 6915 1545 50  0001 C CNN
F 3 "" H 6915 1545 50  0001 C CNN
	1    6915 1545
	0    -1   -1   0   
$EndComp
$Comp
L R BR1
U 1 1 5B8A7E84
P 7260 3485
F 0 "BR1" V 7290 3310 50  0000 C CNN
F 1 "1K" V 7260 3485 50  0000 C CNN
F 2 "Resistors_SMD:R_0805_HandSoldering" V 7190 3485 50  0001 C CNN
F 3 "" H 7260 3485 50  0000 C CNN
	1    7260 3485
	0    -1   -1   0   
$EndComp
$Comp
L Q_NPN_BEC BT1
U 1 1 5B8A8460
P 7805 3710
F 0 "BT1" H 8005 3760 50  0000 L CNN
F 1 "MMBT3904" H 8005 3660 50  0000 L CNN
F 2 "TO_SOT_Packages_SMD:SOT-23" H 8005 3810 50  0001 C CNN
F 3 "" H 7805 3710 50  0001 C CNN
	1    7805 3710
	0    1    1    0   
$EndComp
Text Label 7155 3810 0    60   ~ 0
MAIN_GND
$Comp
L Conn_01x02 BZ1
U 1 1 5B8A8EBE
P 8305 4010
F 0 "BZ1" H 8305 4110 50  0000 C CNN
F 1 "Buzzer" H 8305 3810 50  0000 C CNN
F 2 "diy:JST_XH_2P-2.54" H 8305 4010 50  0001 C CNN
F 3 "" H 8305 4010 50  0001 C CNN
	1    8305 4010
	0    1    1    0   
$EndComp
$Comp
L Thermistor_NTC NTC1
U 1 1 5B8C0506
P 7640 3165
F 0 "NTC1" V 7465 3165 50  0000 C CNN
F 1 "10K" V 7765 3165 50  0000 C CNN
F 2 "Pin_Headers:Pin_Header_Straight_1x02_Pitch2.54mm" H 7640 3215 50  0001 C CNN
F 3 "" H 7640 3215 50  0001 C CNN
	1    7640 3165
	0    1    1    0   
$EndComp
$Comp
L R NR1
U 1 1 5B8C1D80
P 7250 3165
F 0 "NR1" V 7345 3155 50  0000 C CNN
F 1 "10K" V 7250 3165 50  0000 C CNN
F 2 "Resistors_THT:R_Axial_DIN0207_L6.3mm_D2.5mm_P15.24mm_Horizontal" V 7180 3165 50  0001 C CNN
F 3 "" H 7250 3165 50  0000 C CNN
	1    7250 3165
	0    -1   -1   0   
$EndComp
Wire Wire Line
	2345 5125 3195 5125
Wire Wire Line
	2440 5225 3195 5225
Wire Wire Line
	2345 5325 3195 5325
Wire Wire Line
	2440 5425 3195 5425
Wire Wire Line
	2345 5525 3195 5525
Wire Wire Line
	2445 5625 3195 5625
Wire Wire Line
	2145 5125 1890 5125
Wire Wire Line
	1890 5125 1890 5825
Wire Wire Line
	2240 5225 1890 5225
Connection ~ 1890 5225
Wire Wire Line
	2145 5325 1890 5325
Connection ~ 1890 5325
Wire Wire Line
	2240 5425 1890 5425
Connection ~ 1890 5425
Wire Wire Line
	2145 5525 1890 5525
Connection ~ 1890 5525
Wire Wire Line
	2245 5625 1890 5625
Connection ~ 1890 5625
Wire Wire Line
	3195 4675 3195 4925
Wire Wire Line
	3600 3595 3640 3595
Wire Wire Line
	3640 3595 3640 4675
Wire Wire Line
	3640 4675 3195 4675
Wire Wire Line
	3600 3750 3640 3750
Connection ~ 3640 3750
Wire Wire Line
	3600 3905 3640 3905
Connection ~ 3640 3905
Wire Wire Line
	3600 4060 3640 4060
Connection ~ 3640 4060
Wire Wire Line
	3600 4215 3640 4215
Connection ~ 3640 4215
Wire Wire Line
	3600 4375 3640 4375
Connection ~ 3640 4375
Wire Wire Line
	2320 4955 2320 5070
Wire Wire Line
	2320 5070 2405 5070
Wire Wire Line
	2405 5070 2405 5125
Connection ~ 2405 5125
Wire Wire Line
	2480 4955 2480 5225
Connection ~ 2480 5225
Wire Wire Line
	2640 4955 2640 5325
Connection ~ 2640 5325
Wire Wire Line
	2795 4955 2795 5425
Connection ~ 2795 5425
Wire Wire Line
	2955 4955 2955 5525
Connection ~ 2955 5525
Wire Wire Line
	3120 4955 3120 5625
Connection ~ 3120 5625
Wire Wire Line
	2320 4655 2320 3595
Wire Wire Line
	2320 3595 3300 3595
Wire Wire Line
	2480 4655 2480 3750
Wire Wire Line
	2480 3750 3300 3750
Wire Wire Line
	2640 4655 2640 3905
Wire Wire Line
	2640 3905 3300 3905
Wire Wire Line
	2795 4655 2795 4060
Wire Wire Line
	2230 4060 3300 4060
Wire Wire Line
	2955 4655 2955 4215
Wire Wire Line
	2230 4215 3300 4215
Wire Wire Line
	3120 4655 3120 4375
Wire Wire Line
	2230 4375 3300 4375
Wire Wire Line
	6825 2485 7180 2485
Wire Wire Line
	5325 2485 4925 2485
Wire Wire Line
	5875 3710 5875 4195
Wire Wire Line
	5975 4195 5975 3710
Wire Wire Line
	5975 3710 6050 3710
Wire Wire Line
	4890 4925 4595 4925
Wire Wire Line
	4935 2735 4935 3680
Wire Wire Line
	4935 4350 4935 5025
Wire Wire Line
	4935 5025 4595 5025
Wire Wire Line
	4975 2860 4975 3885
Wire Wire Line
	4975 4185 4975 5125
Wire Wire Line
	4975 5125 4595 5125
Wire Wire Line
	4890 2610 5325 2610
Wire Wire Line
	4935 2735 5325 2735
Wire Wire Line
	4975 2860 5325 2860
Wire Wire Line
	4595 5225 5015 5225
Wire Wire Line
	5015 5225 5015 4350
Wire Wire Line
	5015 3680 5015 3110
Wire Wire Line
	5015 3110 5325 3110
Wire Wire Line
	5325 3235 5055 3235
Wire Wire Line
	5055 3235 5055 3645
Wire Wire Line
	5055 4400 5055 5325
Wire Wire Line
	5055 5325 4595 5325
Wire Wire Line
	5100 5425 4595 5425
Wire Wire Line
	5100 3360 5100 3585
Wire Wire Line
	5100 4470 5100 5425
Wire Wire Line
	5100 3360 5325 3360
Wire Wire Line
	6225 3710 6225 3930
Wire Wire Line
	5325 2985 4720 2985
Wire Wire Line
	5325 3485 4720 3485
Wire Wire Line
	1890 5825 3195 5825
Wire Wire Line
	6825 2860 7095 2860
Wire Wire Line
	7395 2860 7750 2860
Wire Wire Line
	6825 2735 7090 2735
Wire Wire Line
	7390 2735 7675 2735
Wire Wire Line
	7675 2735 7675 2760
Wire Wire Line
	7675 2760 7750 2760
Wire Wire Line
	6825 2610 7090 2610
Wire Wire Line
	7390 2610 7675 2610
Wire Wire Line
	7675 2610 7675 2660
Wire Wire Line
	7675 2660 7750 2660
Wire Wire Line
	9150 2660 9720 2660
Wire Wire Line
	9150 2560 9815 2560
Wire Wire Line
	9150 2460 9720 2460
Wire Wire Line
	9150 1960 9225 1960
Wire Wire Line
	9225 1960 9225 2360
Wire Wire Line
	9150 2360 10080 2360
Wire Wire Line
	9150 2160 9225 2160
Connection ~ 9225 2160
Wire Wire Line
	9150 2260 9225 2260
Connection ~ 9225 2260
Connection ~ 2795 4060
Connection ~ 2955 4215
Connection ~ 3120 4375
Wire Wire Line
	9605 3015 9605 2460
Connection ~ 9605 2460
Wire Wire Line
	9440 3015 9440 2560
Connection ~ 9440 2560
Wire Wire Line
	9275 3015 9275 2660
Connection ~ 9275 2660
Wire Wire Line
	9275 3315 9275 3795
Wire Wire Line
	9275 3795 9160 3795
Wire Wire Line
	9440 3315 9440 3615
Wire Wire Line
	9440 3615 9160 3615
Wire Wire Line
	9605 3315 9605 3440
Wire Wire Line
	9605 3440 9160 3440
Wire Wire Line
	9150 2860 9150 3160
Wire Wire Line
	9150 3160 8795 3160
Wire Wire Line
	8795 3160 8795 3810
Wire Wire Line
	8795 3795 8860 3795
Wire Wire Line
	8860 3440 8795 3440
Connection ~ 8795 3440
Wire Wire Line
	8860 3615 8795 3615
Connection ~ 8795 3615
Wire Wire Line
	10080 2660 9920 2660
Wire Wire Line
	10080 2360 10080 2660
Connection ~ 9225 2360
Wire Wire Line
	9920 2460 10080 2460
Connection ~ 10080 2460
Wire Wire Line
	10015 2560 10080 2560
Connection ~ 10080 2560
Wire Wire Line
	4745 3885 4745 3645
Wire Wire Line
	4745 3645 4890 3645
Wire Wire Line
	4745 4185 4745 4395
Wire Wire Line
	4745 4395 4890 4395
Wire Wire Line
	4890 3645 4890 2610
Wire Wire Line
	4890 4395 4890 4925
Wire Wire Line
	4860 3885 4860 3680
Wire Wire Line
	4860 3680 4935 3680
Wire Wire Line
	4860 4185 4860 4350
Wire Wire Line
	4860 4350 4935 4350
Wire Wire Line
	5095 4185 5095 4350
Wire Wire Line
	5095 4350 5015 4350
Wire Wire Line
	5095 3885 5095 3680
Wire Wire Line
	5095 3680 5015 3680
Wire Wire Line
	5215 3880 5215 3645
Wire Wire Line
	5215 3645 5055 3645
Wire Wire Line
	5215 4180 5215 4400
Wire Wire Line
	5215 4400 5055 4400
Wire Wire Line
	5340 3880 5340 3585
Wire Wire Line
	5340 3585 5100 3585
Wire Wire Line
	5340 4180 5340 4470
Wire Wire Line
	5340 4470 5100 4470
Wire Wire Line
	6825 2110 6915 2110
Wire Wire Line
	6915 2110 6915 1745
Wire Wire Line
	6825 2235 7015 2235
Wire Wire Line
	7015 2235 7015 1745
Wire Wire Line
	6825 3485 7110 3485
Wire Wire Line
	7410 3485 7805 3485
Wire Wire Line
	7805 3485 7805 3510
Wire Wire Line
	8005 3810 8205 3810
Wire Wire Line
	8795 3810 8305 3810
Connection ~ 8795 3795
Wire Wire Line
	7030 3810 7605 3810
Wire Wire Line
	7790 3165 8795 3165
Connection ~ 8795 3165
Wire Wire Line
	7400 3165 7490 3165
Wire Wire Line
	6825 2985 7445 2985
Wire Wire Line
	7445 2985 7445 3165
Connection ~ 7445 3165
Wire Wire Line
	7100 3165 7030 3165
Wire Wire Line
	7030 3165 7030 3810
Wire Wire Line
	6225 3930 6395 3930
Wire Wire Line
	6395 3930 6395 4565
Wire Wire Line
	6400 3710 6620 3710
Wire Wire Line
	6620 3710 6620 4565
$EndSCHEMATC
